[
  {
    "Name" : "Samsung Galaxy S20",
    "Price" : "640$",
    "URL" : "SamsungGalaxyS20.jpg",
    "Color" : "Navy",
    "VendorCode": 1111
  },
  {
    "Name" : "Huawei P40 lite",
    "Price" : "220$",
    "URL" : "HuaweiP40lite.jpg",
    "Color" : "Green",
    "VendorCode" : 2222
  },
  {
    "Name" : "Xiaomi Redmi 9",
    "Price" : "250$",
    "URL" : "XiaomiRedmi9.jpg",
    "Color" : "Silver",
    "VendorCode" : 3333
  },
  {
    "Name" : "Xiaomi Redmi 8",
    "Price" : "200$",
    "URL"  : "XiaomiRedmi8.jpg",
    "Color" : "Black",
    "VendorCode": 4444
},
  {
    "Name" : "Iphone X",
    "Price" : "550$",
    "URL" : "IphoneX.jpg",
    "Color": "White",
    "VendorCode" : 5555
},
  {
    "Name" : "iphone SE",
    "Price" : "480$",
    "URL" : "IphoneSE.jpg",
    "Color" : "Red",
    "VendorCode": 6666
},
  {
    "Name" : "Huawei Mate Xs",
    "Price" : "2400$",
    "URL" : "HuaweiMateXs.jpg",
    "Color" : "Black",
    "VendorCode" : 7777
},
  {
    "Name" : "Xiaomi Mi 10 Pro",
    "Price" : "1100$",
    "URL" : "XiaomiMi10Pro.jpg",
    "Color" : "Silver",
    "VendorCode" : 8888
},
  {
    "Name" : "Honor Note 10",
    "Price": "1000$",
    "URL" : "HonorNote10.jpg",
    "Color" : "Blue",
    "VendorCode" : 9999
},
  {
    "Name" : "Meizu 16th",
    "Price": "300$",
    "URL" : "Meizu16th.jpg",
    "Color" : "Black",
    "VendorCode" : 1211
  }
]